Boss.png
size:352,533
filter:Linear,Linear
pma:true
Boss_Neck
bounds:235,217,115,314
offsets:0,0,116,314
Boss_head
bounds:2,252,231,279
offsets:1,1,233,281
Boss_toalet
bounds:163,16,199,154
offsets:1,1,201,156
rotate:90
Boss_toalet back
bounds:2,2,159,248
offsets:1,1,161,250
