%YAML 1.1
%TAG !u! tag:unity3d.com,2011:
--- !u!114 &11400000
MonoBehaviour:
  m_ObjectHideFlags: 0
  m_CorrespondingSourceObject: {fileID: 0}
  m_PrefabInstance: {fileID: 0}
  m_PrefabAsset: {fileID: 0}
  m_GameObject: {fileID: 0}
  m_Enabled: 1
  m_EditorHideFlags: 0
  m_Script: {fileID: 11500000, guid: 96d9e9168acb10041a995683f405fcf7, type: 3}
  m_Name: Ranged
  m_EditorClassIdentifier: 
  listCharacter:
  - type: 2
    name: Ranged
    rank: 1
    prefab: {fileID: 2564109415635638935, guid: 5b4f21320abff1c4ab8e2f5ec4475018, type: 3}
    prefabUI: {fileID: 613139313035704502, guid: d36af4a217a30c64da664e397290d8d2, type: 3}
    icon: {fileID: 21300000, guid: eb5eb3b8762f84948bf1dc7a1b4275c1, type: 3}
    listLevel:
    - HP: 1
      ATK: 1
      ATKS: 1
      range: 4
      moveSpeed: 0
      level: 0
      cost_Buy: 4
      cost_Upgrade: 1000
    - HP: 1
      ATK: 1.25
      ATKS: 1
      range: 4
      moveSpeed: 0
      level: 1
      cost_Buy: 4
      cost_Upgrade: 1000
    - HP: 1
      ATK: 1.5
      ATKS: 1
      range: 4
      moveSpeed: 0
      level: 2
      cost_Buy: 4
      cost_Upgrade: 1000
    - HP: 1
      ATK: 1.75
      ATKS: 1
      range: 4
      moveSpeed: 0
      level: 3
      cost_Buy: 4
      cost_Upgrade: 1000
    attackSound: {fileID: 8300000, guid: 6b19101fc429b6e4cb789ff46cd58187, type: 3}
  - type: 2
    name: Ranged
    rank: 2
    prefab: {fileID: 2564109415635638935, guid: 5b4f21320abff1c4ab8e2f5ec4475018, type: 3}
    prefabUI: {fileID: 613139313035704502, guid: d36af4a217a30c64da664e397290d8d2, type: 3}
    icon: {fileID: 21300000, guid: e77de6911bf82654791fceb4739c2401, type: 3}
    listLevel:
    - HP: 1
      ATK: 2
      ATKS: 1
      range: 4
      moveSpeed: 0
      level: 1
      cost_Buy: 4
      cost_Upgrade: 1000
    - HP: 2
      ATK: 2.5
      ATKS: 2
      range: 8
      moveSpeed: 0
      level: 2
      cost_Buy: 4
      cost_Upgrade: 1000
    - HP: 2
      ATK: 3
      ATKS: 2
      range: 8
      moveSpeed: 0
      level: 3
      cost_Buy: 4
      cost_Upgrade: 1000
    attackSound: {fileID: 8300000, guid: 6b19101fc429b6e4cb789ff46cd58187, type: 3}
  - type: 2
    name: Ranged
    rank: 3
    prefab: {fileID: 2564109415635638935, guid: 5b4f21320abff1c4ab8e2f5ec4475018, type: 3}
    prefabUI: {fileID: 613139313035704502, guid: d36af4a217a30c64da664e397290d8d2, type: 3}
    icon: {fileID: 21300000, guid: c5e121d023d24724da53f015aedcbb91, type: 3}
    listLevel:
    - HP: 2
      ATK: 3.5
      ATKS: 2
      range: 8
      moveSpeed: 0
      level: 1
      cost_Buy: 4
      cost_Upgrade: 1000
    - HP: 2
      ATK: 4
      ATKS: 2
      range: 8
      moveSpeed: 0
      level: 2
      cost_Buy: 4
      cost_Upgrade: 1000
    - HP: 2
      ATK: 4.5
      ATKS: 2
      range: 8
      moveSpeed: 0
      level: 3
      cost_Buy: 4
      cost_Upgrade: 1000
    attackSound: {fileID: 8300000, guid: 6b19101fc429b6e4cb789ff46cd58187, type: 3}
