Untitled-3.png
size:104,304
filter:Linear,Linear
pma:true
Body 1
bounds:2,211,85,71
offsets:1,1,87,74
Head_1
bounds:2,2,100,122
offsets:2,2,104,125
Leg L_1
bounds:2,284,18,41
offsets:1,1,20,43
rotate:90
Leg R_1
bounds:45,284,18,41
offsets:1,1,41,43
rotate:90
Weapon_1
bounds:2,126,98,83
offsets:1,1,100,85
